{
    "holy see": 1,
    "italy": 2,
    "san marino": 3,
    "switzerland": 4,
    "austria": 5,
    "belgium": 6,
    "bulgaria": 7,
    "cyprus": 8,
    "croatia": 9,
    "denmark": 10,
    "estonia": 11,
    "finland": 12,
    "france": 13,
    "germany": 14,
    "greece": 15,
    "ireland": 16,
    "isle of man": 17,
    "latvia": 18,
    "lithuania": 19,
    "luxembourg": 20,
    "malta": 21,
    "netherlands": 22,
    "poland": 23,
    "portugal": 24,
    "united kingdom of great britain and northern ireland": 25,
    "czech republic": 26,
    "slovakia": 27,
    "slovenia": 28,
    "spain": 29,
    "sweden": 30,
    "hungary": 31,
    "albania": 32,
    "andorra": 33,
    "armenia": 34,
    "belarus": 35,
    "bosnia and herzegovina": 36,
    "georgia": 37,
    "gibraltar": 38,
    "guernsey": 39,
    "iceland": 40,
    "åland islands": 41,
    "liechtenstein": 42,
    "north macedonia": 43,
    "moldova, republic of": 44,
    "monaco": 45,
    "montenegro": 46,
    "norway": 47,
    "romania": 48,
    "russian federation": 49,
    "serbia": 50,
    "svalbard and jan mayen": 51,
    "turkey": 52,
    "ukraine": 53,
    "algeria": 54,
    "saudi arabia": 55,
    "bahrain": 56,
    "egypt": 57,
    "djibouti": 58,
    "jordan": 59,
    "iran, islamic republic of": 60,
    "iraq": 61,
    "israel": 62,
    "kuwait": 63,
    "lebanon": 64,
    "libya": 65,
    "morocco": 66,
    "oman": 67,
    "qatar": 68,
    "yemen": 69,
    "azerbaijan": 70,
    "kazakhstan": 71,
    "kyrgyzstan": 72,
    "tajikistan": 73,
    "turkmenistan": 74,
    "uzbekistan": 75,
    "australia": 76,
    "canada": 77,
    "chile": 78,
    "korea, republic of": 79,
    "japan": 80,
    "united states minor outlying islands": 81,
    "mexico": 82,
    "new zealand": 83,
    "united states of america": 84,
    "angola": 85,
    "benin": 86,
    "botswana": 87,
    "burkina faso": 88,
    "burundi": 89,
    "cameroon": 90,
    "cabo verde": 91,
    "chad": 92,
    "comoros": 93,
    "côte d'ivoire": 94,
    "eritrea": 95,
    "ethiopia": 96,
    "gabon": 97,
    "gambia, republic of the": 98,
    "ghana": 99,
    "guinea": 100,
    "equatorial guinea": 101,
    "guinea-bissau": 102,
    "kenya": 103,
    "lesotho": 104,
    "liberia": 105,
    "madagascar": 106,
    "malawi": 107,
    "mali": 108,
    "mauritania": 109,
    "mauritius": 110,
    "mayotte": 111,
    "mozambique": 112,
    "namibia": 113,
    "niger": 114,
    "nigeria": 115,
    "palestine, state of": 116,
    "congo, democratic republic of the": 117,
    "central african republic": 118,
    "congo": 119,
    "réunion": 120,
    "rwanda": 121,
    "western sahara": 122,
    "saint helena, ascension and tristan da cunha": 123,
    "são tomé and príncipe": 124,
    "senegal": 125,
    "seychelles": 126,
    "sierra leone": 127,
    "syrian arab republic": 128,
    "somalia": 129,
    "south africa": 130,
    "sudan": 131,
    "south sudan": 132,
    "eswatini": 133,
    "tanzania, united republic of": 134,
    "togo": 135,
    "tunisia": 136,
    "uganda": 137,
    "zambia": 138,
    "zimbabwe": 139,
    "afghanistan": 140,
    "bangladesh": 141,
    "bhutan": 142,
    "myanmar": 143,
    "brunei darussalam": 144,
    "cambodia": 145,
    "china": 146,
    "korea, democratic people's republic of": 147,
    "united arab emirates": 148,
    "philippines": 149,
    "hong kong": 150,
    "india": 151,
    "indonesia": 152,
    "lao people's democratic republic": 153,
    "macao": 154,
    "malaysia": 155,
    "maldives": 156,
    "mongolia": 157,
    "nepal": 158,
    "pakistan": 159,
    "singapore": 160,
    "sri lanka": 161,
    "taiwan, province of china": 162,
    "british indian ocean territory": 163,
    "thailand": 164,
    "timor-leste": 165,
    "viet nam": 166,
    "anguilla": 167,
    "antigua and barbuda": 168,
    "aruba": 169,
    "bahamas": 170,
    "barbados": 171,
    "belize": 172,
    "bermuda": 173,
    "costa rica": 174,
    "cuba": 175,
    "curaçao": 176,
    "dominica": 177,
    "el salvador": 178,
    "jamaica": 179,
    "grenada": 180,
    "guadeloupe": 181,
    "guatemala": 182,
    "haiti": 183,
    "honduras": 184,
    "cayman islands": 185,
    "virgin islands (u.s.)": 186,
    "virgin islands (british)": 187,
    "martinique": 188,
    "montserrat": 189,
    "nicaragua": 190,
    "panama": 191,
    "puerto rico": 192,
    "dominican republic": 193,
    "saint kitts and nevis": 194,
    "saint lucia": 195,
    "saint vincent and the grenadines": 196,
    "saint barthelemy": 197,
    "saint martin (french part)": 198,
    "saint pierre and miquelon": 199,
    "sint maarten (dutch part)": 200,
    "trinidad and tobago": 201,
    "turks and caicos islands": 202,
    "argentina": 203,
    "bolivia, plurinational state of": 204,
    "brazil": 205,
    "colombia": 206,
    "ecuador": 207,
    "guyana": 208,
    "french guiana": 209,
    "bonaire, sint eustatius and saba": 210,
    "falkland islands (malvinas)": 211,
    "paraguay": 212,
    "peru": 213,
    "suriname": 214,
    "uruguay": 215,
    "venezuela, bolivarian republic of": 216,
    "fiji": 217,
    "guam": 218,
    "christmas island": 219,
    "norfolk island": 220,
    "cocos (keeling) islands": 221,
    "cook islands": 222,
    "northern mariana islands": 224,
    "marshall islands": 225,
    "pitcairn": 226,
    "solomon islands": 227,
    "kiribati": 228,
    "micronesia, federated states of": 229,
    "nauru": 230,
    "niue": 231,
    "new caledonia": 232,
    "palau": 233,
    "papua new guinea": 234,
    "french polynesia": 235,
    "samoa": 236,
    "american samoa": 237,
    "french southern territories": 238,
    "tokelau": 239,
    "tonga": 240,
    "tuvalu": 241,
    "vanuatu": 242,
    "wallis and futuna": 243,
    "south georgia and the south sandwich islands": 244,
    "bouvet island": 245,
    "jersey": 246,
    "faroe islands": 248,
    "greenland": 249,
    "international": 250,
    "kosovo": 251,
    "european union": 252
}